{
    "wallpaper": "/home/taco/.config/wpg/wallpapers/maroon-bells.jpg",
    "alpha": "100",

    "special": {
        "background": "#1b140e",
        "foreground": "#fffdf2",
        "cursor": "#fffdf2"
    },
    "colors": {
        "color0": "#1b140e",
        "color1": "#985e51",
        "color2": "#7E8176",
        "color3": "#DF8C4F",
        "color4": "#A08975",
        "color5": "#ac84a1",
        "color6": "#96b0af",
        "color7": "#dbd0c7",
        "color8": "#3c2c1e",
        "color9": "#da7e60",
        "color10": "#abb789",
        "color11": "#ffb253",
        "color12": "#e1b086",
        "color13": "#cda9c7",
        "color14": "#b7d4d4",
        "color15": "#fffdf2"
    }
}
