{
    "wallpaper": "/home/taco/.config/wpg/wallpapers/wave.png",
    "alpha": "100",

    "special": {
        "background": "#081550",
        "foreground": "#ffffef",
        "cursor": "#ffffef"
    },
    "colors": {
        "color0": "#081550",
        "color1": "#A4A4A0",
        "color2": "#566B8C",
        "color3": "#E3AC97",
        "color4": "#25608F",
        "color5": "#8E7A86",
        "color6": "#56ABB1",
        "color7": "#e8dbcd",
        "color8": "#0c207d",
        "color9": "#eaeabb",
        "color10": "#6187c4",
        "color11": "#ffd4ab",
        "color12": "#247ec5",
        "color13": "#c98db1",
        "color14": "#5eedf7",
        "color15": "#ffffef"
    }
}
